<?xml version="1.0" standalone="no"?>
<!DOCTYPE svg PUBLIC "-//W3C//DTD SVG 20010904//EN"
 "http://www.w3.org/TR/2001/REC-SVG-20010904/DTD/svg10.dtd">
<svg version="1.0" xmlns="http://www.w3.org/2000/svg"
 width="749.000000pt" height="749.000000pt" viewBox="0 0 749.000000 749.000000"
 preserveAspectRatio="xMidYMid meet">
<metadata>
Created by potrace 1.11, written by Peter Selinger 2001-2013
</metadata>
<g transform="translate(0.000000,749.000000) scale(0.100000,-0.100000)"
fill="#000000" stroke="none">
<path d="M0 3745 l0 -3745 928 3 c510 1 938 6 952 10 20 6 21 6 5 -2 l-20 -10
20 0 c25 -1 468 89 475 96 3 3 -11 3 -30 -1 -77 -15 -126 -18 -110 -7 13 9 12
11 -5 12 -11 0 36 14 105 30 117 27 186 37 130 19 -61 -20 20 -6 296 51 163
33 298 59 300 56 2 -2 -114 -30 -259 -62 -241 -53 -331 -77 -232 -62 754 119
889 143 1001 178 139 43 51 31 -296 -41 -250 -52 -292 -57 -130 -15 513 134
646 170 791 215 292 90 610 214 669 260 14 11 -33 -5 -104 -35 -176 -76 -450
-174 -636 -229 -189 -55 -321 -88 -327 -83 -2 2 36 14 84 26 172 43 333 94
327 103 -4 6 2 7 16 3 16 -5 20 -4 15 5 -5 9 -1 10 15 5 17 -5 21 -4 15 6 -6
9 -4 11 8 6 9 -3 17 -2 19 2 2 4 47 23 101 41 54 17 97 34 95 36 -2 1 -73 -20
-158 -47 -85 -28 -236 -73 -335 -101 -260 -72 -791 -195 -801 -186 -2 3 44 15
104 27 156 34 563 135 743 186 360 102 669 222 889 346 130 73 137 85 14 25
-162 -80 -470 -204 -480 -193 -2 2 45 23 104 46 184 74 382 176 524 270 76 50
139 91 142 91 3 0 3 -7 0 -15 -13 -33 22 -12 92 57 41 39 74 77 74 84 0 7 17
40 38 73 53 81 89 196 98 310 5 69 4 92 -5 87 -7 -5 -11 3 -11 24 0 99 -93
314 -187 430 -142 175 -339 340 -748 623 -218 151 -263 183 -440 316 -321 240
-643 518 -729 630 -105 136 -188 281 -247 428 -43 109 -105 359 -120 483 -14
125 -7 321 16 439 36 183 125 389 246 571 170 253 536 550 840 679 125 53 227
76 437 97 203 20 229 16 296 -49 98 -93 83 -210 -42 -335 -69 -69 -294 -255
-406 -336 -297 -215 -474 -430 -557 -676 -61 -184 -50 -390 32 -556 113 -231
274 -410 504 -562 55 -37 170 -118 255 -181 85 -63 160 -116 167 -117 13 -2
95 -57 228 -152 98 -70 187 -151 179 -163 -2 -4 1 -11 7 -15 8 -4 9 -3 5 4
-11 18 10 14 25 -5 10 -11 10 -14 2 -9 -44 26 11 -22 180 -157 193 -155 352
-307 448 -427 113 -141 265 -390 255 -416 -4 -10 -2 -12 6 -8 8 5 9 2 5 -10
-4 -9 -3 -15 2 -11 12 7 63 -125 89 -230 76 -301 48 -631 -79 -922 -39 -88
-164 -293 -189 -308 -7 -4 -4 5 5 21 16 26 14 26 -15 -6 -104 -111 -162 -175
-160 -179 4 -7 -87 -94 -160 -154 -109 -88 -187 -136 -210 -130 -11 3 -36 -5
-56 -16 -51 -31 -288 -123 -414 -161 -58 -18 -112 -38 -120 -45 -8 -7 -58 -29
-110 -48 -52 -20 -87 -36 -78 -37 10 0 81 25 159 55 77 30 146 52 152 48 6 -4
7 -1 2 7 -5 8 -3 11 5 8 32 -10 16 -28 -52 -56 -40 -17 -89 -37 -108 -45 -31
-14 116 -15 1443 -16 l1477 -1 0 3745 0 3745 -3745 0 -3745 0 0 -3745z m5720
-3008 c0 -2 -10 -12 -22 -23 l-23 -19 19 23 c18 21 26 27 26 19z m-2437 -413
c-36 -15 -212 -48 -220 -41 -2 3 40 15 94 27 54 12 103 23 108 25 6 2 19 3 30
3 14 0 11 -4 -12 -14z m-380 -51 c-7 -2 -19 -2 -25 0 -7 3 -2 5 12 5 14 0 19
-2 13 -5z m-46 -9 c-3 -3 -12 -4 -19 -1 -8 3 -5 6 6 6 11 1 17 -2 13 -5z m230
0 c-3 -3 -12 -4 -19 -1 -8 3 -5 6 6 6 11 1 17 -2 13 -5z m-280 -10 c-3 -3 -12
-4 -19 -1 -8 3 -5 6 6 6 11 1 17 -2 13 -5z m-17 -19 c0 -11 -53 -25 -156 -44
-57 -10 -104 -15 -104 -11 0 4 55 19 123 33 145 30 137 28 137 22z m2209 -59
c-10 -9 -69 -36 -69 -32 0 7 52 35 64 36 5 0 7 -2 5 -4z m-2704 -21 c-27 -7
-61 -13 -75 -13 -14 0 -4 6 25 13 28 7 61 13 75 13 14 0 4 -6 -25 -13z m212 9
c-3 -3 -12 -4 -19 -1 -8 3 -5 6 6 6 11 1 17 -2 13 -5z m2263 -55 c0 -6 -4 -7
-10 -4 -5 3 -10 11 -10 16 0 6 5 7 10 4 6 -3 10 -11 10 -16z m-2583 -15 c-3
-3 -12 -4 -19 -1 -8 3 -5 6 6 6 11 1 17 -2 13 -5z"/>
<path d="M5230 1905 c0 -5 5 -17 10 -25 5 -8 10 -10 10 -5 0 6 -5 17 -10 25
-5 8 -10 11 -10 5z"/>
<path d="M5982 1855 c0 -16 2 -22 5 -12 2 9 2 23 0 30 -3 6 -5 -1 -5 -18z"/>
<path d="M5994 1655 c0 -82 2 -115 3 -72 2 43 2 110 0 150 -1 40 -3 5 -3 -78z"/>
<path d="M5291 1704 c0 -11 3 -14 6 -6 3 7 2 16 -1 19 -3 4 -6 -2 -5 -13z"/>
<path d="M5317 1549 c-4 -37 -16 -93 -27 -125 -11 -31 -18 -59 -16 -61 2 -2
12 19 21 47 9 28 19 49 21 47 3 -2 -7 -35 -20 -73 -30 -81 -28 -96 3 -23 31
71 45 157 34 210 l-9 44 -7 -66z"/>
<path d="M5982 1455 c0 -16 2 -22 5 -12 2 9 2 23 0 30 -3 6 -5 -1 -5 -18z"/>
<path d="M4935 969 c-4 -5 -12 -8 -18 -6 -7 2 -41 -15 -77 -38 -36 -24 -93
-57 -127 -74 -35 -17 -63 -36 -63 -41 0 -16 8 -13 132 58 110 62 182 111 166
112 -4 0 -10 -5 -13 -11z"/>
<path d="M4350 670 c-8 -5 -10 -10 -5 -10 6 0 17 5 25 10 8 5 11 10 5 10 -5 0
-17 -5 -25 -10z"/>
<path d="M4270 640 c-8 -5 -10 -10 -5 -10 6 0 17 5 25 10 8 5 11 10 5 10 -5 0
-17 -5 -25 -10z"/>
<path d="M2478 123 c6 -2 18 -2 25 0 6 3 1 5 -13 5 -14 0 -19 -2 -12 -5z"/>
<path d="M2428 113 c6 -2 18 -2 25 0 6 3 1 5 -13 5 -14 0 -19 -2 -12 -5z"/>
<path d="M2378 103 c6 -2 18 -2 25 0 6 3 1 5 -13 5 -14 0 -19 -2 -12 -5z"/>
</g>
</svg>
